id,Title,Content,Permalink,_wp_page_template,_elementor_controls_usage,_elementor_template_type,_elementor_css,_elementor_data,Postcode,Suburb
,Bens Test Page-2,<!-- Created with Elementor --><!-- Created with Elementor -->,http://msmpb.krums.com.au/bens-test-page-2/,elementor_canvas,"a:4:{s:11:""text-editor"";a:3:{s:5:""count"";i:1;s:15:""control_percent"";i:0;s:8:""controls"";a:1:{s:7:""content"";a:1:{s:14:""section_editor"";a:1:{s:6:""editor"";i:1;}}}}s:6:""column"";a:3:{s:5:""count"";i:2;s:15:""control_percent"";i:0;s:8:""controls"";a:0:{}}s:7:""section"";a:3:{s:5:""count"";i:2;s:15:""control_percent"";i:0;s:8:""controls"";a:0:{}}s:8:""template"";a:3:{s:5:""count"";i:1;s:15:""control_percent"";i:0;s:8:""controls"";a:1:{s:7:""content"";a:1:{s:16:""section_template"";a:1:{s:11:""template_id"";i:1;}}}}}",wp-page,"a:6:{s:4:""time"";i:1571633345;s:5:""fonts"";a:0:{}s:5:""icons"";a:0:{}s:6:""status"";s:5:""empty"";i:0;s:0:"""";s:3:""css"";s:0:"""";}","[{""id"":""2530b75b"",""elType"":""section"",""settings"":[],""elements"":[{""id"":""13b027d2"",""elType"":""column"",""settings"":{""_column_size"":100},""elements"":[{""id"":""2289d653"",""elType"":""widget"",""settings"":{""editor"":""<!-- Created with Elementor -->""},""elements"":[],""widgetType"":""text-editor""}],""isInner"":false}],""isInner"":false},{""id"":""8f215e4"",""elType"":""section"",""settings"":[],""elements"":[{""id"":""2a6dd6e"",""elType"":""column"",""settings"":{""_column_size"":100},""elements"":[{""id"":""59d149f"",""elType"":""widget"",""settings"":{""template_id"":""15""},""elements"":[],""widgetType"":""template""}],""isInner"":false}],""isInner"":false}]",22222222222,Elwood 2222222222222
,Bens Test Page-3,<!-- Created with Elementor --><!-- Created with Elementor -->,http://msmpb.krums.com.au/bens-test-page-3/,elementor_canvas,"a:4:{s:11:""text-editor"";a:3:{s:5:""count"";i:1;s:15:""control_percent"";i:0;s:8:""controls"";a:1:{s:7:""content"";a:1:{s:14:""section_editor"";a:1:{s:6:""editor"";i:1;}}}}s:6:""column"";a:3:{s:5:""count"";i:2;s:15:""control_percent"";i:0;s:8:""controls"";a:0:{}}s:7:""section"";a:3:{s:5:""count"";i:2;s:15:""control_percent"";i:0;s:8:""controls"";a:0:{}}s:8:""template"";a:3:{s:5:""count"";i:1;s:15:""control_percent"";i:0;s:8:""controls"";a:1:{s:7:""content"";a:1:{s:16:""section_template"";a:1:{s:11:""template_id"";i:1;}}}}}",wp-page,"a:6:{s:4:""time"";i:1571633345;s:5:""fonts"";a:0:{}s:5:""icons"";a:0:{}s:6:""status"";s:5:""empty"";i:0;s:0:"""";s:3:""css"";s:0:"""";}","[{""id"":""2530b75b"",""elType"":""section"",""settings"":[],""elements"":[{""id"":""13b027d2"",""elType"":""column"",""settings"":{""_column_size"":100},""elements"":[{""id"":""2289d653"",""elType"":""widget"",""settings"":{""editor"":""<!-- Created with Elementor -->""},""elements"":[],""widgetType"":""text-editor""}],""isInner"":false}],""isInner"":false},{""id"":""8f215e4"",""elType"":""section"",""settings"":[],""elements"":[{""id"":""2a6dd6e"",""elType"":""column"",""settings"":{""_column_size"":100},""elements"":[{""id"":""59d149f"",""elType"":""widget"",""settings"":{""template_id"":""15""},""elements"":[],""widgetType"":""template""}],""isInner"":false}],""isInner"":false}]",3333333,Elwood 33333
