id,Title,Content,Excerpt,Permalink
932,"Mobile Skips Elwood","<h2>This is a test by Ben</h2>		
										<img width=""800"" height=""606"" src=""http://msmpb.krums.com.au/wp-content/uploads/2019/10/Unclutter-2.png"" alt="""" srcset=""https://msmpb.krums.com.au/wp-content/uploads/2019/10/Unclutter-2.png 985w, https://msmpb.krums.com.au/wp-content/uploads/2019/10/Unclutter-2-300x227.png 300w, https://msmpb.krums.com.au/wp-content/uploads/2019/10/Unclutter-2-768x582.png 768w"" sizes=""(max-width: 800px) 100vw, 800px"" />											
			<h2>Add this on templatessssss<br></h2>		
			<h2>Postcode ACF</h2>		
		Lorem ipsum dolor sit amet, consectetur adipiscing elit. Ut elit tellus, luctus nec ullamcorper mattis, pulvinar dapibus leo.		
			<h2>Suburb ACF</h2>		
		Lorem ipsum dolor sit amet, consectetur adipiscing elit. Ut elit tellus, luctus nec ullamcorper mattis, pulvinar dapibus leo.<!-- Created with Elementor --><!-- Created with Elementor --><!-- Created with Elementor --><!-- Created with Elementor --><!-- Created with Elementor --><!-- Created with Elementor --><!-- Created with Elementor --><!-- Created with Elementor --><!-- Created with Elementor --><!-- Created with Elementor -->",,http://msmpb.krums.com.au/mobile-skips-elwood/
933,"Mobile Skips Ringwood","<h2>This is a test by Ben</h2>		
										<img width=""800"" height=""606"" src=""http://msmpb.krums.com.au/wp-content/uploads/2019/10/Unclutter-2.png"" alt="""" srcset=""https://msmpb.krums.com.au/wp-content/uploads/2019/10/Unclutter-2.png 985w, https://msmpb.krums.com.au/wp-content/uploads/2019/10/Unclutter-2-300x227.png 300w, https://msmpb.krums.com.au/wp-content/uploads/2019/10/Unclutter-2-768x582.png 768w"" sizes=""(max-width: 800px) 100vw, 800px"" />											
			<h2>Add this on templatessssss<br></h2>		
			<h2>Postcode ACF</h2>		
		Lorem ipsum dolor sit amet, consectetur adipiscing elit. Ut elit tellus, luctus nec ullamcorper mattis, pulvinar dapibus leo.		
			<h2>Suburb ACF</h2>		
		Lorem ipsum dolor sit amet, consectetur adipiscing elit. Ut elit tellus, luctus nec ullamcorper mattis, pulvinar dapibus leo.<!-- Created with Elementor --><!-- Created with Elementor --><!-- Created with Elementor --><!-- Created with Elementor --><!-- Created with Elementor --><!-- Created with Elementor --><!-- Created with Elementor --><!-- Created with Elementor --><!-- Created with Elementor --><!-- Created with Elementor -->",,http://msmpb.krums.com.au/mobile-skips-ringwood/
934,"Mobile Skips Melbourne","<h2>This is a test by Ben</h2>		
										<img width=""800"" height=""606"" src=""http://msmpb.krums.com.au/wp-content/uploads/2019/10/Unclutter-2.png"" alt="""" srcset=""https://msmpb.krums.com.au/wp-content/uploads/2019/10/Unclutter-2.png 985w, https://msmpb.krums.com.au/wp-content/uploads/2019/10/Unclutter-2-300x227.png 300w, https://msmpb.krums.com.au/wp-content/uploads/2019/10/Unclutter-2-768x582.png 768w"" sizes=""(max-width: 800px) 100vw, 800px"" />											
			<h2>Add this on templatessssss<br></h2>		
			<h2>Postcode ACF</h2>		
		Lorem ipsum dolor sit amet, consectetur adipiscing elit. Ut elit tellus, luctus nec ullamcorper mattis, pulvinar dapibus leo.		
			<h2>Suburb ACF</h2>		
		Lorem ipsum dolor sit amet, consectetur adipiscing elit. Ut elit tellus, luctus nec ullamcorper mattis, pulvinar dapibus leo.<!-- Created with Elementor --><!-- Created with Elementor --><!-- Created with Elementor --><!-- Created with Elementor --><!-- Created with Elementor --><!-- Created with Elementor --><!-- Created with Elementor --><!-- Created with Elementor --><!-- Created with Elementor --><!-- Created with Elementor -->",,http://msmpb.krums.com.au/mobile-skips-melbourne/
935,"Mobile Skips Geelong","<h2>This is a test by Ben</h2>		
										<img width=""800"" height=""606"" src=""http://msmpb.krums.com.au/wp-content/uploads/2019/10/Unclutter-2.png"" alt="""" srcset=""https://msmpb.krums.com.au/wp-content/uploads/2019/10/Unclutter-2.png 985w, https://msmpb.krums.com.au/wp-content/uploads/2019/10/Unclutter-2-300x227.png 300w, https://msmpb.krums.com.au/wp-content/uploads/2019/10/Unclutter-2-768x582.png 768w"" sizes=""(max-width: 800px) 100vw, 800px"" />											
			<h2>Add this on templatessssss<br></h2>		
			<h2>Postcode ACF</h2>		
		Lorem ipsum dolor sit amet, consectetur adipiscing elit. Ut elit tellus, luctus nec ullamcorper mattis, pulvinar dapibus leo.		
			<h2>Suburb ACF</h2>		
		Lorem ipsum dolor sit amet, consectetur adipiscing elit. Ut elit tellus, luctus nec ullamcorper mattis, pulvinar dapibus leo.<!-- Created with Elementor --><!-- Created with Elementor --><!-- Created with Elementor --><!-- Created with Elementor --><!-- Created with Elementor --><!-- Created with Elementor --><!-- Created with Elementor --><!-- Created with Elementor --><!-- Created with Elementor --><!-- Created with Elementor -->",,http://msmpb.krums.com.au/mobile-skips-geelong/
