id,Title,Content,_wp_page_template,_schema_ref,eael_transient_elements,_elementor_edit_mode,_elementor_template_type,_elementor_version,_elementor_pro_version,_yoast_wpseo_content_score,postcode,_postcode,Suburb,_Suburb,_yoast_wpseo_primary_category,_elementor_data,saswp_custom_schema_field,hyperlink,_hyperlink,_oembed,_oembed_time,_elementor_page_settings,_elementor_controls_usage,map,_map,saswp_enable_disable_schema,product_reviews_639,feed_element_639,faq_question_639,performer_639,howto_supply_639,howto_tool_639,howto_step_639,music_playlist_track_639,music_album_track_639,apartment_amenities_639,additional_property_639,mc_cause_639,mc_symptom_639,mc_risk_factor_639,tvseries_actor_639,tvseries_season_639,trip_itinerary_639,saswp_business_id_639,saswp_business_type_639,saswp_business_name_639,local_business_name_639,local_business_name_url_639,local_business_description_639,local_street_address_639,local_city_639,local_state_639,local_postal_code_639,local_latitude_639,local_longitude_639,local_phone_639,local_website_639,local_business_logo_639_detail,local_business_logo_639,saswp_dayofweek_639,local_price_range_639,local_menu_639,local_hasmap_639,local_serves_cuisine_639,local_facebook_639,local_twitter_639,local_instagram_639,local_pinterest_639,local_linkedin_639,local_soundcloud_639,local_tumblr_639,local_youtube_639,local_enable_rating_639,local_rating_639,local_review_count_639,product_reviews_333,feed_element_333,faq_question_333,performer_333,howto_supply_333,howto_tool_333,howto_step_333,music_playlist_track_333,music_album_track_333,apartment_amenities_333,additional_property_333,mc_cause_333,mc_symptom_333,mc_risk_factor_333,tvseries_actor_333,tvseries_season_333,trip_itinerary_333,saswp_webpage_name_333,saswp_webpage_url_333,saswp_webpage_description_333,saswp_webpage_keywords_333,saswp_webpage_main_entity_of_page_333,saswp_webpage_image_333_detail,saswp_webpage_image_333,saswp_webpage_headline_333,saswp_webpage_date_published_333,saswp_webpage_date_modified_333,saswp_webpage_author_name_333,saswp_webpage_author_description_333,saswp_webpage_organization_name_333,saswp_webpage_organization_logo_333_detail,saswp_webpage_organization_logo_333,saswp_webpage_speakable_333,product_reviews_330,feed_element_330,faq_question_330,performer_330,howto_supply_330,howto_tool_330,howto_step_330,music_playlist_track_330,music_album_track_330,apartment_amenities_330,additional_property_330,mc_cause_330,mc_symptom_330,mc_risk_factor_330,tvseries_actor_330,tvseries_season_330,trip_itinerary_330,saswp_service_schema_name_330,saswp_service_schema_type_330,saswp_service_schema_provider_name_330,saswp_service_schema_provider_type_330,saswp_service_schema_image_330_detail,saswp_service_schema_image_330,saswp_service_schema_locality_330,saswp_service_schema_postal_code_330,saswp_service_schema_telephone_330,saswp_service_schema_price_range_330,saswp_service_schema_description_330,saswp_service_schema_area_served_330,saswp_service_schema_service_offer_330,saswp_service_schema_enable_rating_330,saswp_service_schema_rating_330,saswp_service_schema_review_count_330,_HunchSchemaType,_oembed,_oembed_time,_HunchSchemaRating3,_HunchSchemaRating1,_page_generator_pro_group,_page_generator_pro_last_index_generated,region_accordian_0_region_title,_region_accordian_0_region_title,region_accordian_0_region_description,_region_accordian_0_region_description,region_accordian_1_region_title,_region_accordian_1_region_title,region_accordian_1_region_description,_region_accordian_1_region_description,_wp_trash_meta_status,_wp_trash_meta_time,_wp_desired_post_slug,_oembed,google_map,_google_map,product_reviews_727,feed_element_727,faq_question_727,performer_727,howto_supply_727,howto_tool_727,howto_step_727,music_playlist_track_727,music_album_track_727,apartment_amenities_727,additional_property_727,mc_cause_727,mc_symptom_727,mc_risk_factor_727,tvseries_actor_727,tvseries_season_727,trip_itinerary_727,saswp_webpage_speakable_727,local_area_served_639,_wp_old_slug
1163,"Accordion with ACF","<a href="""">Accord Title 1 XXX</a>
					Accord Description 1 xxx
												<a href="""">Accord Title 2 XXXX</a>
					Accord Description 2 XXXX
			<h1>Accordion Heading Title AAAA</h1>		
		Text Editor with Accordion AAAA",default,,,builder,wp-page,2.7.5,2.7.3,,,,,,,"[{""id"":""1e73b30"",""elType"":""section"",""settings"":[],""elements"":[{""id"":""961eaa9"",""elType"":""column"",""settings"":{""_column_size"":100},""elements"":[{""id"":""e1d432d"",""elType"":""widget"",""settings"":{""tabs"":[{""tab_title"":""Accord Title 1 XXX"",""tab_content"":""Accord Description 1 xxx"",""_id"":""eb5c338""},{""tab_title"":""Accord Title 2 XXXX"",""tab_content"":""Accord Description 2 XXXX"",""_id"":""01dfd60""}]},""elements"":[],""widgetType"":""accordion""}],""isInner"":false}],""isInner"":false},{""id"":""28928d6"",""elType"":""section"",""settings"":[],""elements"":[{""id"":""802c048"",""elType"":""column"",""settings"":{""_column_size"":100},""elements"":[{""id"":""ec9a4a8"",""elType"":""widget"",""settings"":{""title"":""Accordion Heading Title AAAA"",""header_size"":""h1"",""typography_typography"":""custom"",""typography_font_size"":{""unit"":""px"",""size"":108,""sizes"":[]},""typography_font_weight"":""700""},""elements"":[],""widgetType"":""heading""},{""id"":""309718b"",""elType"":""widget"",""settings"":{""editor"":""Text Editor with Accordion AAAA""},""elements"":[],""widgetType"":""text-editor""}],""isInner"":false}],""isInner"":false}]",,,,,,"a:4:{s:23:""ang_action_update_token"";s:0:"""";s:21:""ang_action_save_token"";s:0:"""";s:16:""ang_action_reset"";s:0:"""";s:21:""ang_action_export_css"";s:0:"""";}","a:5:{s:9:""accordion"";a:3:{s:5:""count"";i:1;s:15:""control_percent"";i:0;s:8:""controls"";a:1:{s:7:""content"";a:1:{s:13:""section_title"";a:1:{s:4:""tabs"";i:1;}}}}s:6:""column"";a:3:{s:5:""count"";i:2;s:15:""control_percent"";i:0;s:8:""controls"";a:0:{}}s:7:""section"";a:3:{s:5:""count"";i:2;s:15:""control_percent"";i:0;s:8:""controls"";a:0:{}}s:7:""heading"";a:3:{s:5:""count"";i:1;s:15:""control_percent"";i:2;s:8:""controls"";a:2:{s:7:""content"";a:1:{s:13:""section_title"";a:2:{s:5:""title"";i:1;s:11:""header_size"";i:1;}}s:5:""style"";a:1:{s:19:""section_title_style"";a:3:{s:21:""typography_typography"";i:1;s:20:""typography_font_size"";i:1;s:22:""typography_font_weight"";i:1;}}}}s:11:""text-editor"";a:3:{s:5:""count"";i:1;s:15:""control_percent"";i:0;s:8:""controls"";a:1:{s:7:""content"";a:1:{s:14:""section_editor"";a:1:{s:6:""editor"";i:1;}}}}}",,,,,,,,,,,,,,,,,,,,,,,,,,,,,,,,,,,,,,,,,,,,,,,,,,,,,,,,,,,,,,,,,,,,,,,,,,,,,,,,,,,,,,,,,,,,,,,,,,,,,,,,,,,,,,,,,,,,,,,,,,,,,,"Title 1",field_5de4efa85a78a,"Description 1",field_5de4efc25a78b,"Title 2",field_5de4efa85a78a,"Description 2",field_5de4efc25a78b,,,,,,,,,,,,,,,,,,,,,,,,,,
