ID,Title,Content,_wp_page_template,_schema_ref,eael_transient_elements,_elementor_edit_mode,_elementor_edit_mode,_elementor_template_type,_elementor_data,_oembed,_oembed_time,_elementor_page_settings,_elementor_controls_usage,,,,,,,,,,,,,,,,,,,,,,,,,,,,,,,
,Review page 2,"<a href=""https://www.productreview.com.au/listings/mobile-skips"" target=""_blank"" rel=""noopener noreferrer"">
<img src=""https://api.productreview.com.au/api/services/rating-badge/v2/au/94613d50-b6dd-3382-be87-0200284a54ae/from-internal-entry-id?resolution=hd&amp;theme=light&amp;width=160"" alt=""Mobile Skips"" width=""160"" />
</a>
<hr/>
<a href=""https://www.productreview.com.au/listings/mobile-skips"" target=""_blank"" rel=""noopener noreferrer"">
<img src=""https://api.productreview.com.au/api/services/rating-badge/v2/au/94613d50-b6dd-3382-be87-0200284a54ae/from-internal-entry-id?resolution=hd&amp;theme=light&amp;width=160"" alt=""Mobile Skips"" width=""160"" />
</a>",elementor_canvas,,a:0:{},builder,builder,wp-page,"[{""id"":""f62558d"",""elType"":""section"",""settings"":[],""elements"":[{""id"":""acb0011"",""elType"":""column"",""settings"":{""_column_size"":100},""elements"":[{""id"":""05599ab"",""elType"":""section"",""settings"":{""structure"":""20""},""elements"":[{""id"":""54eb1d4"",""elType"":""column"",""settings"":{""_column_size"":50,""_inline_size"":null},""elements"":[{""id"":""db50948"",""elType"":""widget"",""settings"":{""editor"":""<a href=\https:\/\/www.productreview.com.au\/listings\/mobile-skips\"" target=\""_blank\"" rel=\""noopener\"">\n<img src=\""https:\/\/api.productreview.com.au\/api\/services\/rating-badge\/v2\/au\/94613d50-b6dd-3382-be87-0200284a54ae\/from-internal-entry-id?resolution=hd&amp;theme=light&amp;width=160\"" alt=\""Mobile Skips\"" width=\""160\"" \/>\n<\/a>\n<hr\/>\n<div id=\""pr-reviews-horizontal-widget\""><\/div>""""","align"""":""""center""""}","elements"""":[]","widgetType"""":""""text-editor""""}]","isInner"""":true}","{""""id"""":""""7c8c88c""""","elType"""":""""column""""","settings"""":{""""_column_size"""":50","_inline_size"""":null}","elements"""":[{""""id"""":""""aa9d802""""","elType"""":""""widget""""","settings"""":{""""editor"""":""""<a href=\""https:\/\/www.productreview.com.au\/listings\/mobile-skips\"" target=\""_blank\"" rel=\""noopener\"">\n<img src=\""https:\/\/api.productreview.com.au\/api\/services\/rating-badge\/v2\/au\/94613d50-b6dd-3382-be87-0200284a54ae\/from-internal-entry-id?resolution=hd&amp;theme=light&amp;width=160\"" alt=\""Mobile Skips\"" width=\""160\"" \/>\n<\/a>""""","align"""":""""center""""}","elements"""":[]","widgetType"""":""""text-editor""""}]","isInner"""":true}]","isInner"""":true}]","isInner"""":false}]","isInner"""":false}","{""""id"""":""""1b7f92d""""","elType"""":""""section""""","settings"""":[]","elements"""":[{""""id"""":""""e0d7eb4""""","elType"""":""""column""""","settings"""":{""""_column_size"""":100}","elements"""":[{""""id"""":""""49695d6""""","elType"""":""""widget""""","settings"""":{""""template_id"""":""""1176""""}","elements"""":[]","widgetType"""":""""template""""}]","isInner"""":false}]","isInner"""":false}]""",,,"a:4:{s:23:""ang_action_update_token"";s:0:"""";s:21:""ang_action_save_token"";s:0:"""";s:16:""ang_action_reset"";s:0:"""";s:21:""ang_action_export_css"";s:0:"""";}","a:4:{s:11:""text-editor"";a:3:{s:5:""count"";i:2;s:15:""control_percent"";i:1;s:8:""controls"";a:2:{s:7:""content"";a:1:{s:14:""section_editor"";a:1:{s:6:""editor"";i:2;}}s:5:""style"";a:1:{s:13:""section_style"";a:1:{s:5:""align"";i:2;}}}}s:6:""column"";a:3:{s:5:""count"";i:4;s:15:""control_percent"";i:0;s:8:""controls"";a:1:{s:6:""layout"";a:1:{s:6:""layout"";a:1:{s:12:""_inline_size"";i:2;}}}}s:7:""section"";a:3:{s:5:""count"";i:3;s:15:""control_percent"";i:0;s:8:""controls"";a:1:{s:6:""layout"";a:1:{s:17:""section_structure"";a:1:{s:9:""structure"";i:1;}}}}s:8:""template"";a:3:{s:5:""count"";i:1;s:15:""control_percent"";i:0;s:8:""controls"";a:1:{s:7:""content"";a:1:{s:16:""section_template"";a:1:{s:11:""template_id"";i:1;}}}}}"
,Review page 3,"<a href=""https://www.productreview.com.au/listings/mobile-skips"" target=""_blank"" rel=""noopener noreferrer"">
<img src=""https://api.productreview.com.au/api/services/rating-badge/v2/au/94613d50-b6dd-3382-be87-0200284a54ae/from-internal-entry-id?resolution=hd&amp;theme=light&amp;width=160"" alt=""Mobile Skips"" width=""160"" />
</a>
<hr/>
<a href=""https://www.productreview.com.au/listings/mobile-skips"" target=""_blank"" rel=""noopener noreferrer"">
<img src=""https://api.productreview.com.au/api/services/rating-badge/v2/au/94613d50-b6dd-3382-be87-0200284a54ae/from-internal-entry-id?resolution=hd&amp;theme=light&amp;width=160"" alt=""Mobile Skips"" width=""160"" />
</a>",elementor_canvas,,a:0:{},builder,builder,wp-page,"[{""id"":""f62558d"",""elType"":""section"",""settings"":[],""elements"":[{""id"":""acb0011"",""elType"":""column"",""settings"":{""_column_size"":100},""elements"":[{""id"":""05599ab"",""elType"":""section"",""settings"":{""structure"":""20""},""elements"":[{""id"":""54eb1d4"",""elType"":""column"",""settings"":{""_column_size"":50,""_inline_size"":null},""elements"":[{""id"":""db50948"",""elType"":""widget"",""settings"":{""editor"":""<a href=\https:\/\/www.productreview.com.au\/listings\/mobile-skips\"" target=\""_blank\"" rel=\""noopener\"">\n<img src=\""https:\/\/api.productreview.com.au\/api\/services\/rating-badge\/v2\/au\/94613d50-b6dd-3382-be87-0200284a54ae\/from-internal-entry-id?resolution=hd&amp;theme=light&amp;width=160\"" alt=\""Mobile Skips\"" width=\""160\"" \/>\n<\/a>\n<hr\/>\n<div id=\""pr-reviews-horizontal-widget\""><\/div>""""","align"""":""""center""""}","elements"""":[]","widgetType"""":""""text-editor""""}]","isInner"""":true}","{""""id"""":""""7c8c88c""""","elType"""":""""column""""",,,,,,,,,,,,,,,,,,,,,,,,,,,,,
,Review page 4,"<a href=""https://www.productreview.com.au/listings/mobile-skips"" target=""_blank"" rel=""noopener noreferrer"">
<img src=""https://api.productreview.com.au/api/services/rating-badge/v2/au/94613d50-b6dd-3382-be87-0200284a54ae/from-internal-entry-id?resolution=hd&amp;theme=light&amp;width=160"" alt=""Mobile Skips"" width=""160"" />
</a>
<hr/>
<a href=""https://www.productreview.com.au/listings/mobile-skips"" target=""_blank"" rel=""noopener noreferrer"">
<img src=""https://api.productreview.com.au/api/services/rating-badge/v2/au/94613d50-b6dd-3382-be87-0200284a54ae/from-internal-entry-id?resolution=hd&amp;theme=light&amp;width=160"" alt=""Mobile Skips"" width=""160"" />
</a>",elementor_canvas,,a:0:{},builder,builder,wp-page,"[{""id"":""f62558d"",""elType"":""section"",""settings"":[],""elements"":[{""id"":""acb0011"",""elType"":""column"",""settings"":{""_column_size"":100},""elements"":[{""id"":""05599ab"",""elType"":""section"",""settings"":{""structure"":""20""},""elements"":[{""id"":""54eb1d4"",""elType"":""column"",""settings"":{""_column_size"":50,""_inline_size"":null},""elements"":[{""id"":""db50948"",""elType"":""widget"",""settings"":{""editor"":""<a href=\https:\/\/www.productreview.com.au\/listings\/mobile-skips\"" target=\""_blank\"" rel=\""noopener\"">\n<img src=\""https:\/\/api.productreview.com.au\/api\/services\/rating-badge\/v2\/au\/94613d50-b6dd-3382-be87-0200284a54ae\/from-internal-entry-id?resolution=hd&amp;theme=light&amp;width=160\"" alt=\""Mobile Skips\"" width=\""160\"" \/>\n<\/a>\n<hr\/>\n<div id=\""pr-reviews-horizontal-widget\""><\/div>""""","align"""":""""center""""}","elements"""":[]","widgetType"""":""""text-editor""""}]","isInner"""":true}","{""""id"""":""""7c8c88c""""","elType"""":""""column""""",,,,,,,,,,,,,,,,,,,,,,,,,,,,,
,Review page 5,"<a href=""https://www.productreview.com.au/listings/mobile-skips"" target=""_blank"" rel=""noopener noreferrer"">
<img src=""https://api.productreview.com.au/api/services/rating-badge/v2/au/94613d50-b6dd-3382-be87-0200284a54ae/from-internal-entry-id?resolution=hd&amp;theme=light&amp;width=160"" alt=""Mobile Skips"" width=""160"" />
</a>
<hr/>
<a href=""https://www.productreview.com.au/listings/mobile-skips"" target=""_blank"" rel=""noopener noreferrer"">
<img src=""https://api.productreview.com.au/api/services/rating-badge/v2/au/94613d50-b6dd-3382-be87-0200284a54ae/from-internal-entry-id?resolution=hd&amp;theme=light&amp;width=160"" alt=""Mobile Skips"" width=""160"" />
</a>",elementor_canvas,,a:0:{},builder,builder,wp-page,"[{""id"":""f62558d"",""elType"":""section"",""settings"":[],""elements"":[{""id"":""acb0011"",""elType"":""column"",""settings"":{""_column_size"":100},""elements"":[{""id"":""05599ab"",""elType"":""section"",""settings"":{""structure"":""20""},""elements"":[{""id"":""54eb1d4"",""elType"":""column"",""settings"":{""_column_size"":50,""_inline_size"":null},""elements"":[{""id"":""db50948"",""elType"":""widget"",""settings"":{""editor"":""<a href=\https:\/\/www.productreview.com.au\/listings\/mobile-skips\"" target=\""_blank\"" rel=\""noopener\"">\n<img src=\""https:\/\/api.productreview.com.au\/api\/services\/rating-badge\/v2\/au\/94613d50-b6dd-3382-be87-0200284a54ae\/from-internal-entry-id?resolution=hd&amp;theme=light&amp;width=160\"" alt=\""Mobile Skips\"" width=\""160\"" \/>\n<\/a>\n<hr\/>\n<div id=\""pr-reviews-horizontal-widget\""><\/div>""""","align"""":""""center""""}","elements"""":[]","widgetType"""":""""text-editor""""}]","isInner"""":true}","{""""id"""":""""7c8c88c""""","elType"""":""""column""""",,,,,,,,,,,,,,,,,,,,,,,,,,,,,
,Review page 6,"<a href=""https://www.productreview.com.au/listings/mobile-skips"" target=""_blank"" rel=""noopener noreferrer"">
<img src=""https://api.productreview.com.au/api/services/rating-badge/v2/au/94613d50-b6dd-3382-be87-0200284a54ae/from-internal-entry-id?resolution=hd&amp;theme=light&amp;width=160"" alt=""Mobile Skips"" width=""160"" />
</a>
<hr/>
<a href=""https://www.productreview.com.au/listings/mobile-skips"" target=""_blank"" rel=""noopener noreferrer"">
<img src=""https://api.productreview.com.au/api/services/rating-badge/v2/au/94613d50-b6dd-3382-be87-0200284a54ae/from-internal-entry-id?resolution=hd&amp;theme=light&amp;width=160"" alt=""Mobile Skips"" width=""160"" />
</a>",elementor_canvas,,a:0:{},builder,builder,wp-page,"[{""id"":""f62558d"",""elType"":""section"",""settings"":[],""elements"":[{""id"":""acb0011"",""elType"":""column"",""settings"":{""_column_size"":100},""elements"":[{""id"":""05599ab"",""elType"":""section"",""settings"":{""structure"":""20""},""elements"":[{""id"":""54eb1d4"",""elType"":""column"",""settings"":{""_column_size"":50,""_inline_size"":null},""elements"":[{""id"":""db50948"",""elType"":""widget"",""settings"":{""editor"":""<a href=\https:\/\/www.productreview.com.au\/listings\/mobile-skips\"" target=\""_blank\"" rel=\""noopener\"">\n<img src=\""https:\/\/api.productreview.com.au\/api\/services\/rating-badge\/v2\/au\/94613d50-b6dd-3382-be87-0200284a54ae\/from-internal-entry-id?resolution=hd&amp;theme=light&amp;width=160\"" alt=\""Mobile Skips\"" width=\""160\"" \/>\n<\/a>\n<hr\/>\n<div id=\""pr-reviews-horizontal-widget\""><\/div>""""","align"""":""""center""""}","elements"""":[]","widgetType"""":""""text-editor""""}]","isInner"""":true}","{""""id"""":""""7c8c88c""""","elType"""":""""column""""",,,,,,,,,,,,,,,,,,,,,,,,,,,,,
,Review page 7,"<a href=""https://www.productreview.com.au/listings/mobile-skips"" target=""_blank"" rel=""noopener noreferrer"">
<img src=""https://api.productreview.com.au/api/services/rating-badge/v2/au/94613d50-b6dd-3382-be87-0200284a54ae/from-internal-entry-id?resolution=hd&amp;theme=light&amp;width=160"" alt=""Mobile Skips"" width=""160"" />
</a>
<hr/>
<a href=""https://www.productreview.com.au/listings/mobile-skips"" target=""_blank"" rel=""noopener noreferrer"">
<img src=""https://api.productreview.com.au/api/services/rating-badge/v2/au/94613d50-b6dd-3382-be87-0200284a54ae/from-internal-entry-id?resolution=hd&amp;theme=light&amp;width=160"" alt=""Mobile Skips"" width=""160"" />
</a>",elementor_canvas,,a:0:{},builder,builder,wp-page,"[{""id"":""f62558d"",""elType"":""section"",""settings"":[],""elements"":[{""id"":""acb0011"",""elType"":""column"",""settings"":{""_column_size"":100},""elements"":[{""id"":""05599ab"",""elType"":""section"",""settings"":{""structure"":""20""},""elements"":[{""id"":""54eb1d4"",""elType"":""column"",""settings"":{""_column_size"":50,""_inline_size"":null},""elements"":[{""id"":""db50948"",""elType"":""widget"",""settings"":{""editor"":""<a href=\https:\/\/www.productreview.com.au\/listings\/mobile-skips\"" target=\""_blank\"" rel=\""noopener\"">\n<img src=\""https:\/\/api.productreview.com.au\/api\/services\/rating-badge\/v2\/au\/94613d50-b6dd-3382-be87-0200284a54ae\/from-internal-entry-id?resolution=hd&amp;theme=light&amp;width=160\"" alt=\""Mobile Skips\"" width=\""160\"" \/>\n<\/a>\n<hr\/>\n<div id=\""pr-reviews-horizontal-widget\""><\/div>""""","align"""":""""center""""}","elements"""":[]","widgetType"""":""""text-editor""""}]","isInner"""":true}","{""""id"""":""""7c8c88c""""","elType"""":""""column""""",,,,,,,,,,,,,,,,,,,,,,,,,,,,,
,Review page 8,"<a href=""https://www.productreview.com.au/listings/mobile-skips"" target=""_blank"" rel=""noopener noreferrer"">
<img src=""https://api.productreview.com.au/api/services/rating-badge/v2/au/94613d50-b6dd-3382-be87-0200284a54ae/from-internal-entry-id?resolution=hd&amp;theme=light&amp;width=160"" alt=""Mobile Skips"" width=""160"" />
</a>
<hr/>
<a href=""https://www.productreview.com.au/listings/mobile-skips"" target=""_blank"" rel=""noopener noreferrer"">
<img src=""https://api.productreview.com.au/api/services/rating-badge/v2/au/94613d50-b6dd-3382-be87-0200284a54ae/from-internal-entry-id?resolution=hd&amp;theme=light&amp;width=160"" alt=""Mobile Skips"" width=""160"" />
</a>",elementor_canvas,,a:0:{},builder,builder,wp-page,"[{""id"":""f62558d"",""elType"":""section"",""settings"":[],""elements"":[{""id"":""acb0011"",""elType"":""column"",""settings"":{""_column_size"":100},""elements"":[{""id"":""05599ab"",""elType"":""section"",""settings"":{""structure"":""20""},""elements"":[{""id"":""54eb1d4"",""elType"":""column"",""settings"":{""_column_size"":50,""_inline_size"":null},""elements"":[{""id"":""db50948"",""elType"":""widget"",""settings"":{""editor"":""<a href=\https:\/\/www.productreview.com.au\/listings\/mobile-skips\"" target=\""_blank\"" rel=\""noopener\"">\n<img src=\""https:\/\/api.productreview.com.au\/api\/services\/rating-badge\/v2\/au\/94613d50-b6dd-3382-be87-0200284a54ae\/from-internal-entry-id?resolution=hd&amp;theme=light&amp;width=160\"" alt=\""Mobile Skips\"" width=\""160\"" \/>\n<\/a>\n<hr\/>\n<div id=\""pr-reviews-horizontal-widget\""><\/div>""""","align"""":""""center""""}","elements"""":[]","widgetType"""":""""text-editor""""}]","isInner"""":true}","{""""id"""":""""7c8c88c""""","elType"""":""""column""""",,,,,,,,,,,,,,,,,,,,,,,,,,,,,
,Review page 9,"<a href=""https://www.productreview.com.au/listings/mobile-skips"" target=""_blank"" rel=""noopener noreferrer"">
<img src=""https://api.productreview.com.au/api/services/rating-badge/v2/au/94613d50-b6dd-3382-be87-0200284a54ae/from-internal-entry-id?resolution=hd&amp;theme=light&amp;width=160"" alt=""Mobile Skips"" width=""160"" />
</a>
<hr/>
<a href=""https://www.productreview.com.au/listings/mobile-skips"" target=""_blank"" rel=""noopener noreferrer"">
<img src=""https://api.productreview.com.au/api/services/rating-badge/v2/au/94613d50-b6dd-3382-be87-0200284a54ae/from-internal-entry-id?resolution=hd&amp;theme=light&amp;width=160"" alt=""Mobile Skips"" width=""160"" />
</a>",elementor_canvas,,a:0:{},builder,builder,wp-page,"[{""id"":""f62558d"",""elType"":""section"",""settings"":[],""elements"":[{""id"":""acb0011"",""elType"":""column"",""settings"":{""_column_size"":100},""elements"":[{""id"":""05599ab"",""elType"":""section"",""settings"":{""structure"":""20""},""elements"":[{""id"":""54eb1d4"",""elType"":""column"",""settings"":{""_column_size"":50,""_inline_size"":null},""elements"":[{""id"":""db50948"",""elType"":""widget"",""settings"":{""editor"":""<a href=\https:\/\/www.productreview.com.au\/listings\/mobile-skips\"" target=\""_blank\"" rel=\""noopener\"">\n<img src=\""https:\/\/api.productreview.com.au\/api\/services\/rating-badge\/v2\/au\/94613d50-b6dd-3382-be87-0200284a54ae\/from-internal-entry-id?resolution=hd&amp;theme=light&amp;width=160\"" alt=\""Mobile Skips\"" width=\""160\"" \/>\n<\/a>\n<hr\/>\n<div id=\""pr-reviews-horizontal-widget\""><\/div>""""","align"""":""""center""""}","elements"""":[]","widgetType"""":""""text-editor""""}]","isInner"""":true}","{""""id"""":""""7c8c88c""""","elType"""":""""column""""",,,,,,,,,,,,,,,,,,,,,,,,,,,,,
,Review page 10,"<a href=""https://www.productreview.com.au/listings/mobile-skips"" target=""_blank"" rel=""noopener noreferrer"">
<img src=""https://api.productreview.com.au/api/services/rating-badge/v2/au/94613d50-b6dd-3382-be87-0200284a54ae/from-internal-entry-id?resolution=hd&amp;theme=light&amp;width=160"" alt=""Mobile Skips"" width=""160"" />
</a>
<hr/>
<a href=""https://www.productreview.com.au/listings/mobile-skips"" target=""_blank"" rel=""noopener noreferrer"">
<img src=""https://api.productreview.com.au/api/services/rating-badge/v2/au/94613d50-b6dd-3382-be87-0200284a54ae/from-internal-entry-id?resolution=hd&amp;theme=light&amp;width=160"" alt=""Mobile Skips"" width=""160"" />
</a>",elementor_canvas,,a:0:{},builder,builder,wp-page,"[{""id"":""f62558d"",""elType"":""section"",""settings"":[],""elements"":[{""id"":""acb0011"",""elType"":""column"",""settings"":{""_column_size"":100},""elements"":[{""id"":""05599ab"",""elType"":""section"",""settings"":{""structure"":""20""},""elements"":[{""id"":""54eb1d4"",""elType"":""column"",""settings"":{""_column_size"":50,""_inline_size"":null},""elements"":[{""id"":""db50948"",""elType"":""widget"",""settings"":{""editor"":""<a href=\https:\/\/www.productreview.com.au\/listings\/mobile-skips\"" target=\""_blank\"" rel=\""noopener\"">\n<img src=\""https:\/\/api.productreview.com.au\/api\/services\/rating-badge\/v2\/au\/94613d50-b6dd-3382-be87-0200284a54ae\/from-internal-entry-id?resolution=hd&amp;theme=light&amp;width=160\"" alt=\""Mobile Skips\"" width=\""160\"" \/>\n<\/a>\n<hr\/>\n<div id=\""pr-reviews-horizontal-widget\""><\/div>""""","align"""":""""center""""}","elements"""":[]","widgetType"""":""""text-editor""""}]","isInner"""":true}","{""""id"""":""""7c8c88c""""","elType"""":""""column""""",,,,,,,,,,,,,,,,,,,,,,,,,,,,,
