"Term ID","Term Name","Term Slug",Description,"Parent ID","Parent Name","Parent Slug",Count
1,Uncategorized,uncategorized,,0,,,2
4,Suburbs,suburbs,,0,,,1
89,"Suburbs Test",suburbs-test,,0,,,0
90,"Suburb Test",suburb-test,,0,,,0
93,Google-My-Business-Site-NSW-AU,google-my-business-site-nsw-au,,0,,,8
