ID,Title,Content,Excerpt,Date,Post Type,Permalink,URL,Title,Caption,Description,Alt Text,Featured,URL,Categories,Tags,_wp_page_template,_elementor_controls_usage,hi Ben heading hi,hi description h2,hi price1 h3,hi price2 h3,hi price1 description,hi price2 description,hi name,hi mobile,hi link,_yoast_wpseo_primary_category,_yoast_wpseo_content_score,_elementor_edit_mode,_elementor_template_type,_elementor_version,_elementor_pro_version,_elementor_css,This is for 2nd one,hi This is good,Hello Spiderman,Hello Thanos,hello Marvel,Hello Superman,hi 12121212,hi link yes it is,_elementor_data,_wp_trash_meta_status,_wp_trash_meta_time,_wp_desired_post_slug,Status,Author ID,Author Username,Author Email,Author First Name,Author Last Name,Slug,Format,Template,Parent,Parent Slug,Order,Comment Status,Ping Status,Post Modified Date,Postcode,Suburb,Heading H1,Description H2,Price1 H3,Price2 H3,Price1 description,Price2 Description,Name,Mobile No,Link
,Bens Test Page 2,<!-- Created with Elementor --><!-- Created with Elementor -->,,21/10/2019,page,http://msmpb.krums.com.au/bens-test-page-2/,,,,,,,,,,elementor_canvas,"a:4:{s:11:""text-editor"";a:3:{s:5:""count"";i:1;s:15:""control_percent"";i:0;s:8:""controls"";a:1:{s:7:""content"";a:1:{s:14:""section_editor"";a:1:{s:6:""editor"";i:1;}}}}s:6:""column"";a:3:{s:5:""count"";i:2;s:15:""control_percent"";i:0;s:8:""controls"";a:0:{}}s:7:""section"";a:3:{s:5:""count"";i:2;s:15:""control_percent"";i:0;s:8:""controls"";a:0:{}}s:8:""template"";a:3:{s:5:""count"";i:1;s:15:""control_percent"";i:0;s:8:""controls"";a:1:{s:7:""content"";a:1:{s:16:""section_template"";a:1:{s:11:""template_id"";i:1;}}}}}",,,,,,,,,,,30,builder,wp-page,2.7.4,2.7.2,"a:6:{s:4:""time"";i:1571633345;s:5:""fonts"";a:0:{}s:5:""icons"";a:0:{}s:6:""status"";s:5:""empty"";i:0;s:0:"""";s:3:""css"";s:0:"""";}",,,,,,,,,"[{""id"":""2530b75b"",""elType"":""section"",""settings"":[],""elements"":[{""id"":""13b027d2"",""elType"":""column"",""settings"":{""_column_size"":100},""elements"":[{""id"":""2289d653"",""elType"":""widget"",""settings"":{""editor"":""<!-- Created with Elementor -->""},""elements"":[],""widgetType"":""text-editor""}],""isInner"":false}],""isInner"":false},{""id"":""8f215e4"",""elType"":""section"",""settings"":[],""elements"":[{""id"":""2a6dd6e"",""elType"":""column"",""settings"":{""_column_size"":100},""elements"":[{""id"":""59d149f"",""elType"":""widget"",""settings"":{""template_id"":""15""},""elements"":[],""widgetType"":""template""}],""isInner"":false}],""isInner"":false}]",,,,publish,12,developerben,ben@krums.com.au,,,bens-test-page,,elementor_canvas,0,0,0,closed,closed,21/10/2019,222222,Elwood 222000,,,,,,,,,
,Bens Test Page 3,<!-- Created with Elementor --><!-- Created with Elementor -->,,21/10/2019,page,http://msmpb.krums.com.au/bens-test-page-3/,,,,,,,,,,elementor_canvas,"a:4:{s:11:""text-editor"";a:3:{s:5:""count"";i:1;s:15:""control_percent"";i:0;s:8:""controls"";a:1:{s:7:""content"";a:1:{s:14:""section_editor"";a:1:{s:6:""editor"";i:1;}}}}s:6:""column"";a:3:{s:5:""count"";i:2;s:15:""control_percent"";i:0;s:8:""controls"";a:0:{}}s:7:""section"";a:3:{s:5:""count"";i:2;s:15:""control_percent"";i:0;s:8:""controls"";a:0:{}}s:8:""template"";a:3:{s:5:""count"";i:1;s:15:""control_percent"";i:0;s:8:""controls"";a:1:{s:7:""content"";a:1:{s:16:""section_template"";a:1:{s:11:""template_id"";i:1;}}}}}",,,,,,,,,,,30,builder,wp-page,2.7.4,2.7.2,"a:6:{s:4:""time"";i:1571633345;s:5:""fonts"";a:0:{}s:5:""icons"";a:0:{}s:6:""status"";s:5:""empty"";i:0;s:0:"""";s:3:""css"";s:0:"""";}",,,,,,,,,"[{""id"":""2530b75b"",""elType"":""section"",""settings"":[],""elements"":[{""id"":""13b027d2"",""elType"":""column"",""settings"":{""_column_size"":100},""elements"":[{""id"":""2289d653"",""elType"":""widget"",""settings"":{""editor"":""<!-- Created with Elementor -->""},""elements"":[],""widgetType"":""text-editor""}],""isInner"":false}],""isInner"":false},{""id"":""8f215e4"",""elType"":""section"",""settings"":[],""elements"":[{""id"":""2a6dd6e"",""elType"":""column"",""settings"":{""_column_size"":100},""elements"":[{""id"":""59d149f"",""elType"":""widget"",""settings"":{""template_id"":""15""},""elements"":[],""widgetType"":""template""}],""isInner"":false}],""isInner"":false}]",,,,publish,12,developerben,ben@krums.com.au,,,bens-test-page,,elementor_canvas,0,0,0,closed,closed,21/10/2019,333333,Elwood 333000,,,,,,,,,
