id,Title,Permalink
941,xxx Mobile Skips Elwood ,http://msmpb.krums.com.au/xxxmobile-skips-elwood-2/
942,xxxx Mobile Skips Ringwood,http://msmpb.krums.com.au/xxxxmobile-skips-ringwood-2/
943,xxxx Mobile Skips Melbourne,http://msmpb.krums.com.au/xxxxmobile-skips-melbourne-2/
944,xxxx Mobile Skips Geelong,http://msmpb.krums.com.au/xxxxmobile-skips-geelong-2/
